{
  "osm": {
    "projection": "EPSG:3857",
    "file_path": "data/witten-processed.sqlite",
    "table_name": "osm_buildings"
  },
  "bbox": {
    "minlon": 7.331000674528964,
    "maxlat": 51.44849348345015,
    "projection": "EPSG:4326",
    "maxlon": 7.345057190310626,
    "minlat": 51.439301519829286
  },
  "lidar": {
    "projection": "EPSG:5555",
    "file_path":
      "F:\\jeremy\\roof_learning_journal\\witten\\lidar\\dom1l-fp_32384_5700_1_nw_N.las"
  }
}